{
    "KPlugin": {
        "Icon": "",
        "Name": "Simon Stålenhag Wallpapers",
        "Name[ar]": "خلفيات سيمون ستالينهاغ",
        "Name[az]": "Simon Stålenhag'ın divar kağızları",
        "Name[bg]": "Тапети от Simon Stålenhag",
        "Name[ca@valencia]": "Fons de pantalla d'en Simon Stålenhag",
        "Name[ca]": "Fons de pantalla d'en Simon Stålenhag",
        "Name[cs]": "Tapety Simona Stålenhaga",
        "Name[de]": "Hintergrundbilder von Simon Stålenhag",
        "Name[en_GB]": "Simon Stålenhag Wallpapers",
        "Name[eo]": "Simon Stålenhag Tapetoj",
        "Name[es]": "Fondos de pantalla de Simon Stålenhag",
        "Name[eu]": "Simon Stålenhag Horma-paperak",
        "Name[fi]": "Simon Stålenhagin taustakuvat",
        "Name[fr]": "Fonds d'écran de Simon Stålenhag ",
        "Name[gl]": "Fondos de Simon Stålenhag",
        "Name[ia]": "Simon Stålenhag Wallpapers (tapetes de papiro)",
        "Name[id]": "Wallpaper dari Simon Stålenhag",
        "Name[is]": "Bakgrunnsmyndir frá Simon Stålenhag",
        "Name[it]": "Sfondi di Simon Stålenhag",
        "Name[ja]": "Simon Stålenhag 壁紙",
        "Name[ka]": "Simon Stålenhag -ის ფონის სურათები",
        "Name[ko]": "Simon Stålenhag 배경 그림",
        "Name[lt]": "Simon Stålenhag darbalaukio fonai",
        "Name[nl]": "Achtergrondafbeeldingen Simon Stålenhag",
        "Name[nn]": "Simon Stålenhags bakgrunnsbilete",
        "Name[pl]": "Tapety Simona Stålenhaga",
        "Name[pt]": "Papéis de Parede de Simon Stålenhag",
        "Name[pt_BR]": "Papéis de parede do Simon Stålenhag",
        "Name[ro]": "Tapete de Simon Stålenhag",
        "Name[ru]": "Обои от Simon Stålenhag",
        "Name[sk]": "Tapety od Simon Stålenhag",
        "Name[sl]": "Simon Stålenhag Wallpapers",
        "Name[sv]": "Skrivbordsunderlägg av Simon Stålenhag",
        "Name[tr]": "Simon Stålenhag Duvar Kağıtları",
        "Name[uk]": "Фонові зображення Сімона Стелегаґа (Simon Stålenhag)",
        "Name[vi]": "Phông nền Simon Stålenhag",
        "Name[x-test]": "xxSimon Stålenhag Wallpapersxx",
        "Name[zh_CN]": "Simon Stålenhag 壁纸",
        "Name[zh_TW]": "西蒙·斯塔倫海格 (Simon Stålenhag) 桌布"
    },
    "X-KDE-PlasmaPoTDProvider-Identifier": "simonstalenhag"
}
